…
```{r, eval = FALSE}
# install.packages("devtools")
devtools::install_github("burrisk/midamix")
```


## Usage
The following code enables you to obtain multiple completed datasets, stored in a nested tibble.

```{r, eval = FALSE}
library(midamix)

data(diamonds)
print(diamonds)
#> # A tibble: 1,000 x 10
#>    carat cut       color clarity depth table price     x     y     z
#>    <dbl> <ord>     <ord> <ord>   <dbl> <dbl> <int> <dbl> <dbl> <dbl>
#>  1  1.24 NA        F     SI2      60    NA    5000  7.03  7     4.21
#>  2  1    Good      NA    SI1      62.7  60      NA  6.24  6.3   3.93
#>  3  1.06 Premium   NA    SI1      59.6  58    4815  6.67  6.73  3.99
#>  4 NA    NA        E     SI1      60.6  58    1440 NA    NA     3.2 
#>  5  0.33 Ideal     E     VS2      NA    54     928  4.47  4.42 NA   
#>  6  0.56 Ideal     H     NA       62.2  55.3    NA  5.26  5.31  3.28
#>  7  1.64 NA        NA    NA       60.7  59    9632  7.61  7.65 NA   
#>  8  0.27 Very Good NA    VVS2     61.9  NA      NA NA    NA     2.59
#>  9  0.4  Very Good D     VS1      62.9  NA    1123  4.67  4.71 NA   
#> 10  0.5  Premium   NA    NA       61.4  61    1971  5.14  5.03  3.12
#> # ... with 990 more rows
…
To extract the second imputed dataset, for example, you could run

```{r, eval = FALSE}
print(diamonds_imputed$data[[2]])
#> # A tibble: 1,000 x 10
#>    carat cut       color clarity depth table price     x     y     z
#>    <dbl> <ord>     <ord> <ord>   <dbl> <dbl> <int> <dbl> <dbl> <dbl>
#>  1  1.24 Premium   F     SI2      60    60    5000  7.03  7     4.21
#>  2  1    Good      G     SI1      62.7  60    3713  6.24  6.3   3.93
#>  3  1.06 Premium   G     SI1      59.6  58    4815  6.67  6.73  3.99
#>  4  0.51 Very Good E     SI1      60.6  58    1440  5.44  5.3   3.2 
#>  5  0.33 Ideal     E     VS2      62.9  54     928  4.47  4.42  2.82
#>  6  0.56 Ideal     H     VVS1     62.2  55.3  1846  5.26  5.31  3.28
#>  7  1.64 Very Good I     SI2      60.7  59    9632  7.61  7.65  4.6 
#>  8  0.27 Very Good F     VVS2     61.9  60     499  4.16  4.15  2.59
#>  9  0.4  Very Good D     VS1      62.9  56    1123  4.67  4.71  3   
#> 10  0.5  Premium   E     VS1      61.4  61    1971  5.14  5.03  3.12
#> # ... with 990 more rows
```
…
